Automagic tabs 🧙️
…
nest_data

# A tibble: 4 x 2
  state         nested_column         
  <chr>         <list>                
1 Hawaii        <tibble[,2] [381 × 2]>
2 Maine         <tibble[,2] [381 × 2]>
3 Nevada        <tibble[,2] [381 × 2]>
4 West Virginia <tibble[,2] [381 × 2]>

nest_data$nested_column[[1]]

# A tibble: 381 x 2
   date       value
   <date>     <int>
 1 1989-01-01    51
 2 1989-02-01    52
 3 1989-03-01    50
 4 1989-04-01    50
 5 1989-05-01    47
 6 1989-06-01    49
 7 1989-07-01    46
 8 1989-08-01    42
 9 1989-09-01    45
10 1989-10-01    43
# … with 371 more rows
…
